<?xml version="1.0" encoding="utf-8"?>
<!-- Generator: Adobe Illustrator 24.2.1, SVG Export Plug-In . SVG Version: 6.00 Build 0)  -->
<svg version="1.1" id="Layer_1" xmlns="http://www.w3.org/2000/svg" xmlns:xlink="http://www.w3.org/1999/xlink" x="0px" y="0px"
	 viewBox="0 0 60 60" style="enable-background:new 0 0 60 60;" xml:space="preserve">
<style type="text/css">
	.st0{fill:#3E5959;}
	.st1{fill:#40888E;}
	.st2{fill:#627072;}
	.st3{fill:#FDFDFD;}
</style>
<g>
	<path class="st0" d="M39.4,11c0.4,0.1,0.8,0.1,1.1,0.2c4.4,1,7.4,5.2,6.9,9.7c-0.2,1.7-0.8,3.3-1.9,4.6c-0.1,0.1-0.2,0.3-0.4,0.4
		c-0.3-0.3-0.5-0.6-0.8-0.8c-0.2-0.2-0.2-0.3,0-0.5c3.3-4.1,1.5-10.3-3.5-11.8c-2.5-0.8-4.9-0.3-7,1.3c-0.2,0.2-0.3,0.2-0.5,0
		c-0.2-0.2-0.4-0.4-0.6-0.6c-0.2-0.2-0.2-0.2,0-0.4c1.4-1.1,2.9-1.8,4.7-2.1c0.1,0,0.2,0,0.2-0.1C38.2,11,38.8,11,39.4,11z"/>
	<path class="st1" d="M35.4,19.7c0,1.2-0.5,2.3-1.1,3.3c-0.9,1.6-2.1,3-3.3,4.4c-2.3,2.6-4.9,4.9-7.7,7c-1.6,1.2-3.3,1.4-5.1,0.5
		c-2.7-1.3-4.7-3.3-5.9-6c-0.7-1.6-0.6-3.2,0.4-4.6c3.1-4.2,6.6-7.9,10.9-10.9c0.8-0.5,1.7-1,2.6-1.3c1-0.3,2-0.3,3,0.2
		c2.8,1.3,4.9,3.4,6,6.3C35.4,18.9,35.5,19.3,35.4,19.7z"/>
	<path class="st0" d="M38.8,39.3c-0.8,0-1.5-0.3-2.2-0.9c-1.4-1.3-2.7-2.7-4-4c-1.2-1.2-1.2-2.9-0.2-4.2c1.7-2.1,3.4-4.2,5-6.3
		c0.8-1.1,1.9-1.2,2.9-0.9c0.6,0.2,1.1,0.5,1.6,1c1.7,1.7,3.5,3.5,5.2,5.2c0.8,0.8,1.3,1.8,1.1,3.1c-0.1,0.5-0.3,0.9-0.7,1.2
		c-2.3,1.8-4.5,3.6-6.8,5.4C40.1,39.1,39.5,39.3,38.8,39.3z"/>
	<path class="st2" d="M21.9,47.5c0-0.4,0-0.8,0-1.2c0-0.2,0-0.2,0.2-0.3c0.3,0,0.6-0.1,1-0.2c0.2,0,0.3-0.1,0.4-0.4
		c0.1-0.5,0.3-1.1,0.4-1.6c0-0.2,0.2-0.3,0.4-0.3c0.4,0,0.7,0,1.1,0c0.2,0,0.3-0.1,0.3-0.3c0-0.4,0.1-0.9,0.2-1.3
		c0-0.3,0.1-0.4,0.4-0.4c0.4,0,0.9-0.1,1.3-0.2c0.2,0,0.3-0.1,0.3-0.3c0-0.4,0.1-0.9,0.2-1.3c0-0.2,0.1-0.4,0.3-0.6
		c0.6-0.6,1.2-1.2,1.8-1.8c0.2-0.2,0.2-0.3,0.2-0.5c-0.1-0.2,0-0.4-0.1-0.6c0-0.1,0-0.2,0.1-0.3c0.4-0.4,0.8-0.8,1.2-1.2
		c0.1-0.1,0.2-0.1,0.3,0c1.4,1.4,2.8,2.9,4.3,4.3c0.1,0.1,0.2,0.2,0,0.3c-0.4,0.4-0.8,0.8-1.2,1.2c-0.2,0.2-0.3,0.1-0.5,0.1
		c-0.5-0.1-0.9,0-1.3,0.4c-0.5,0.6-1,1.1-1.6,1.6c-0.1,0.1-0.3,0.2-0.4,0.2c-0.5,0.1-1,0.1-1.5,0.2c-0.2,0-0.2,0.1-0.2,0.2
		c-0.1,0.5-0.2,1-0.2,1.5c0,0.2-0.1,0.3-0.3,0.3c-0.5,0-1,0.1-1.4,0.2c-0.2,0-0.3,0.1-0.3,0.3c0,0.4,0,0.8,0,1.2
		c0,0.2,0,0.3-0.3,0.3c-0.6,0.1-1.1,0.3-1.7,0.4c-0.2,0-0.3,0.1-0.3,0.3c0,0.2-0.1,0.4-0.1,0.5C24.8,49,24.8,49,24.1,49
		c-0.6,0-1.2,0-1.8,0C22,49,22,48.9,22,48.7C22,48.3,22,47.9,21.9,47.5C22,47.5,21.9,47.5,21.9,47.5z"/>
	<path class="st3" d="M16.7,24.4c0.7,0.7,1.3,1.4,2,2c1.3,1.3,2.6,2.6,3.9,3.9c0.3,0.3,0.2,0.4,0,0.5c-0.2,0.1-0.4,0.3-0.6,0.4
		c-0.9,0.6-1.8,0.7-2.8,0.2c-1.5-0.7-2.6-1.8-3.4-3.4c-0.5-1-0.4-2,0.2-2.9C16.2,25,16.4,24.7,16.7,24.4z"/>
	<path class="st3" d="M27.8,25.6c-2-2-3.9-3.9-5.9-5.9c-0.2-0.2-0.1-0.2,0-0.3c0.2-0.1,0.4-0.3,0.6-0.4c1.6-0.9,2.6-0.9,4.1,0.2
		c0.9,0.7,1.7,1.6,2.2,2.6c0.3,0.6,0.3,1.2,0.1,1.8C28.6,24.4,28.2,25,27.8,25.6z"/>
	<path class="st3" d="M26.4,27.3c0,0-0.1,0.1-0.1,0.1c-0.5,0.6-1.1,1.1-1.6,1.7c-0.1,0.2-0.2,0.1-0.4,0c-2-2-4-4-6.1-6.1
		c-0.1-0.1-0.1-0.2,0-0.3c0.5-0.5,1.1-1.1,1.6-1.6c0.1-0.1,0.2-0.1,0.4,0c2,2,4,4,6.1,6.1C26.3,27.1,26.4,27.2,26.4,27.3z"/>
	<path class="st3" d="M28.3,17.2c0-1,0.8-1.8,1.8-1.8c1,0,1.8,0.8,1.8,1.8c0,1-0.8,1.8-1.8,1.8C29.1,19,28.3,18.2,28.3,17.2z"/>
	<path class="st3" d="M44.7,31.4c0,0.5-0.3,0.9-0.7,1.1c-0.5,0.2-1,0.1-1.4-0.3c-1.1-1.1-2.2-2.2-3.2-3.2c-0.2-0.2-0.5-0.5-0.7-0.7
		c-0.5-0.5-0.4-1.2,0-1.7c0.5-0.5,1.2-0.5,1.7,0c1.4,1.3,2.7,2.7,4,4C44.7,30.8,44.8,31.1,44.7,31.4z"/>
</g>
</svg>
